%YAML 1.1
%TAG !u! tag:unity3d.com,2011:
--- !u!29 &1
OcclusionCullingSettings:
  m_ObjectHideFlags: 0
  serializedVersion: 2
  m_OcclusionBakeSettings:
    smallestOccluder: 5
    smallestHole: 0.25
    backfaceThreshold: 100
  m_SceneGUID: 00000000000000000000000000000000
  m_OcclusionCullingData: {fileID: 0}
--- !u!104 &2
RenderSettings:
  m_ObjectHideFlags: 0
  serializedVersion: 9
  m_Fog: 0
  m_FogColor: {r: 0.5, g: 0.5, b: 0.5, a: 1}
  m_FogMode: 3
  m_FogDensity: 0.01
  m_LinearFogStart: 0
  m_LinearFogEnd: 300
  m_AmbientSkyColor: {r: 0.212, g: 0.227, b: 0.259, a: 1}
  m_AmbientEquatorColor: {r: 0.114, g: 0.125, b: 0.133, a: 1}
  m_AmbientGroundColor: {r: 0.047, g: 0.043, b: 0.035, a: 1}
  m_AmbientIntensity: 1
  m_AmbientMode: 0
  m_SubtractiveShadowColor: {r: 0.42, g: 0.478, b: 0.627, a: 1}
  m_SkyboxMaterial: {fileID: 10304, guid: 0000000000000000f000000000000000, type: 0}
  m_HaloStrength: 0.5
  m_FlareStrength: 1
  m_FlareFadeSpeed: 3
  m_HaloTexture: {fileID: 0}
  m_SpotCookie: {fileID: 10001, guid: 0000000000000000e000000000000000, type: 0}
  m_DefaultReflectionMode: 0
  m_DefaultReflectionResolution: 128
  m_ReflectionBounces: 1
  m_ReflectionIntensity: 1
  m_CustomReflection: {fileID: 0}
  m_Sun: {fileID: 0}
  m_IndirectSpecularColor: {r: 0.44657844, g: 0.49641222, b: 0.57481694, a: 1}
  m_UseRadianceAmbientProbe: 0
--- !u!157 &3
LightmapSettings:
  m_ObjectHideFlags: 0
  serializedVersion: 12
  m_GIWorkflowMode: 1
  m_GISettings:
    serializedVersion: 2
    m_BounceScale: 1
    m_IndirectOutputScale: 1
    m_AlbedoBoost: 1
    m_EnvironmentLightingMode: 0
    m_EnableBakedLightmaps: 1
    m_EnableRealtimeLightmaps: 0
  m_LightmapEditorSettings:
    serializedVersion: 12
    m_Resolution: 2
    m_BakeResolution: 40
    m_AtlasSize: 1024
    m_AO: 0
    m_AOMaxDistance: 1
    m_CompAOExponent: 1
    m_CompAOExponentDirect: 0
    m_ExtractAmbientOcclusion: 0
    m_Padding: 2
    m_LightmapParameters: {fileID: 0}
    m_LightmapsBakeMode: 1
    m_TextureCompression: 1
    m_FinalGather: 0
    m_FinalGatherFiltering: 1
    m_FinalGatherRayCount: 256
    m_ReflectionCompression: 2
    m_MixedBakeMode: 2
    m_BakeBackend: 1
    m_PVRSampling: 1
    m_PVRDirectSampleCount: 32
    m_PVRSampleCount: 512
    m_PVRBounces: 2
    m_PVREnvironmentSampleCount: 256
    m_PVREnvironmentReferencePointCount: 2048
    m_PVRFilteringMode: 1
    m_PVRDenoiserTypeDirect: 1
    m_PVRDenoiserTypeIndirect: 1
    m_PVRDenoiserTypeAO: 1
    m_PVRFilterTypeDirect: 0
    m_PVRFilterTypeIndirect: 0
    m_PVRFilterTypeAO: 0
    m_PVREnvironmentMIS: 1
    m_PVRCulling: 1
    m_PVRFilteringGaussRadiusDirect: 1
    m_PVRFilteringGaussRadiusIndirect: 5
    m_PVRFilteringGaussRadiusAO: 2
    m_PVRFilteringAtrousPositionSigmaDirect: 0.5
    m_PVRFilteringAtrousPositionSigmaIndirect: 2
    m_PVRFilteringAtrousPositionSigmaAO: 1
    m_ExportTrainingData: 0
    m_TrainingDataDestination: TrainingData
    m_LightProbeSampleCountMultiplier: 4
  m_LightingDataAsset: {fileID: 0}
  m_LightingSettings: {fileID: 0}
--- !u!196 &4
NavMeshSettings:
  serializedVersion: 2
  m_ObjectHideFlags: 0
  m_BuildSettings:
    serializedVersion: 2
    agentTypeID: 0
    agentRadius: 0.5
    agentHeight: 2
    agentSlope: 45
    agentClimb: 0.4
    ledgeDropHeight: 0
    maxJumpAcrossDistance: 0
    minRegionArea: 2
    manualCellSize: 0
    cellSize: 0.16666667
    manualTileSize: 0
    tileSize: 256
    accuratePlacement: 0
    maxJobWorkers: 0
    preserveTilesOutsideBounds: 0
    debug:
      m_Flags: 0
  m_NavMeshData: {fileID: 0}
--- !u!1 &549988243 stripped
GameObject:
  m_CorrespondingSourceObject: {fileID: 4868021045032285069, guid: 1b1842160f23d894dbd6876017001e2b, type: 3}
  m_PrefabInstance: {fileID: 1425418677}
  m_PrefabAsset: {fileID: 0}
--- !u!1 &744309640 stripped
GameObject:
  m_CorrespondingSourceObject: {fileID: 3659156866053302790, guid: 4c5d7ec268fa30f4a9c59c3e34b3e847, type: 3}
  m_PrefabInstance: {fileID: 1483141172}
  m_PrefabAsset: {fileID: 0}
--- !u!1 &816389546
GameObject:
  m_ObjectHideFlags: 0
  m_CorrespondingSourceObject: {fileID: 0}
  m_PrefabInstance: {fileID: 0}
  m_PrefabAsset: {fileID: 0}
  serializedVersion: 6
  m_Component:
  - component: {fileID: 816389549}
  - component: {fileID: 816389548}
  - component: {fileID: 816389547}
  - component: {fileID: 816389550}
  m_Layer: 0
  m_Name: Main Camera
  m_TagString: MainCamera
  m_Icon: {fileID: 0}
  m_NavMeshLayer: 0
  m_StaticEditorFlags: 0
  m_IsActive: 1
--- !u!81 &816389547
AudioListener:
  m_ObjectHideFlags: 0
  m_CorrespondingSourceObject: {fileID: 0}
  m_PrefabInstance: {fileID: 0}
  m_PrefabAsset: {fileID: 0}
  m_GameObject: {fileID: 816389546}
  m_Enabled: 1
--- !u!20 &816389548
Camera:
  m_ObjectHideFlags: 0
  m_CorrespondingSourceObject: {fileID: 0}
  m_PrefabInstance: {fileID: 0}
  m_PrefabAsset: {fileID: 0}
  m_GameObject: {fileID: 816389546}
  m_Enabled: 1
  serializedVersion: 2
  m_ClearFlags: 1
  m_BackGroundColor: {r: 0.19215687, g: 0.3019608, b: 0.4745098, a: 0}
  m_projectionMatrixMode: 1
  m_GateFitMode: 2
  m_FOVAxisMode: 0
  m_SensorSize: {x: 36, y: 24}
  m_LensShift: {x: 0, y: 0}
  m_FocalLength: 50
  m_NormalizedViewPortRect:
    serializedVersion: 2
    x: 0
    y: 0
    width: 1
    height: 1
  near clip plane: 0.3
  far clip plane: 1000
  field of view: 60
  orthographic: 0
  orthographic size: 5
  m_Depth: -1
  m_CullingMask:
    serializedVersion: 2
    m_Bits: 4294967295
  m_RenderingPath: -1
  m_TargetTexture: {fileID: 0}
  m_TargetDisplay: 0
  m_TargetEye: 3
  m_HDR: 1
  m_AllowMSAA: 1
  m_AllowDynamicResolution: 0
  m_ForceIntoRT: 0
  m_OcclusionCulling: 1
  m_StereoConvergence: 10
  m_StereoSeparation: 0.022
--- !u!4 &816389549
Transform:
  m_ObjectHideFlags: 0
  m_CorrespondingSourceObject: {fileID: 0}
  m_PrefabInstance: {fileID: 0}
  m_PrefabAsset: {fileID: 0}
  m_GameObject: {fileID: 816389546}
  m_LocalRotation: {x: 0.5, y: -0.5, z: 0.5, w: 0.5}
  m_LocalPosition: {x: 19.6, y: 40, z: 21}
  m_LocalScale: {x: 1, y: 1, z: 1}
  m_Children: []
  m_Father: {fileID: 0}
  m_RootOrder: 0
  m_LocalEulerAnglesHint: {x: 90, y: -90, z: 0}
--- !u!82 &816389550
AudioSource:
  m_ObjectHideFlags: 0
  m_CorrespondingSourceObject: {fileID: 0}
  m_PrefabInstance: {fileID: 0}
  m_PrefabAsset: {fileID: 0}
  m_GameObject: {fileID: 816389546}
  m_Enabled: 1
  serializedVersion: 4
  OutputAudioMixerGroup: {fileID: 0}
  m_audioClip: {fileID: 8300000, guid: fabdf3eda5316804293238e2180805bf, type: 3}
  m_PlayOnAwake: 1
  m_Volume: 1
  m_Pitch: 1
  Loop: 1
  Mute: 0
  Spatialize: 0
  SpatializePostEffects: 0
  Priority: 128
  DopplerLevel: 1
  MinDistance: 1
  MaxDistance: 500
  Pan2D: 0
  rolloffMode: 0
  BypassEffects: 0
  BypassListenerEffects: 0
  BypassReverbZones: 0
  rolloffCustomCurve:
    serializedVersion: 2
    m_Curve:
    - serializedVersion: 3
      time: 0
      value: 1
      inSlope: 0
      outSlope: 0
      tangentMode: 0
      weightedMode: 0
      inWeight: 0.33333334
      outWeight: 0.33333334
    - serializedVersion: 3
      time: 1
      value: 0
      inSlope: 0
      outSlope: 0
      tangentMode: 0
      weightedMode: 0
      inWeight: 0.33333334
      outWeight: 0.33333334
    m_PreInfinity: 2
    m_PostInfinity: 2
    m_RotationOrder: 4
  panLevelCustomCurve:
    serializedVersion: 2
    m_Curve:
    - serializedVersion: 3
      time: 0
      value: 0
      inSlope: 0
      outSlope: 0
      tangentMode: 0
      weightedMode: 0
      inWeight: 0.33333334
      outWeight: 0.33333334
    m_PreInfinity: 2
    m_PostInfinity: 2
    m_RotationOrder: 4
  spreadCustomCurve:
    serializedVersion: 2
    m_Curve:
    - serializedVersion: 3
      time: 0
      value: 0
      inSlope: 0
      outSlope: 0
      tangentMode: 0
      weightedMode: 0
      inWeight: 0.33333334
      outWeight: 0.33333334
    m_PreInfinity: 2
    m_PostInfinity: 2
    m_RotationOrder: 4
  reverbZoneMixCustomCurve:
    serializedVersion: 2
    m_Curve:
    - serializedVersion: 3
      time: 0
      value: 1
      inSlope: 0
      outSlope: 0
      tangentMode: 0
      weightedMode: 0
      inWeight: 0.33333334
      outWeight: 0.33333334
    m_PreInfinity: 2
    m_PostInfinity: 2
    m_RotationOrder: 4
--- !u!1001 &1425418677
PrefabInstance:
  m_ObjectHideFlags: 0
  serializedVersion: 2
  m_Modification:
    m_TransformParent: {fileID: 0}
    m_Modifications:
    - target: {fileID: 4868021045032285059, guid: 1b1842160f23d894dbd6876017001e2b, type: 3}
      propertyPath: m_RootOrder
      value: 2
      objectReference: {fileID: 0}
    - target: {fileID: 4868021045032285059, guid: 1b1842160f23d894dbd6876017001e2b, type: 3}
      propertyPath: m_LocalPosition.x
      value: 0
      objectReference: {fileID: 0}
    - target: {fileID: 4868021045032285059, guid: 1b1842160f23d894dbd6876017001e2b, type: 3}
      propertyPath: m_LocalPosition.y
      value: 0
      objectReference: {fileID: 0}
    - target: {fileID: 4868021045032285059, guid: 1b1842160f23d894dbd6876017001e2b, type: 3}
      propertyPath: m_LocalPosition.z
      value: 0
      objectReference: {fileID: 0}
    - target: {fileID: 4868021045032285059, guid: 1b1842160f23d894dbd6876017001e2b, type: 3}
      propertyPath: m_LocalRotation.w
      value: 1
      objectReference: {fileID: 0}
    - target: {fileID: 4868021045032285059, guid: 1b1842160f23d894dbd6876017001e2b, type: 3}
      propertyPath: m_LocalRotation.x
      value: 0
      objectReference: {fileID: 0}
    - target: {fileID: 4868021045032285059, guid: 1b1842160f23d894dbd6876017001e2b, type: 3}
      propertyPath: m_LocalRotation.y
      value: 0
      objectReference: {fileID: 0}
    - target: {fileID: 4868021045032285059, guid: 1b1842160f23d894dbd6876017001e2b, type: 3}
      propertyPath: m_LocalRotation.z
      value: 0
      objectReference: {fileID: 0}
    - target: {fileID: 4868021045032285059, guid: 1b1842160f23d894dbd6876017001e2b, type: 3}
      propertyPath: m_LocalEulerAnglesHint.x
      value: 0
      objectReference: {fileID: 0}
    - target: {fileID: 4868021045032285059, guid: 1b1842160f23d894dbd6876017001e2b, type: 3}
      propertyPath: m_LocalEulerAnglesHint.y
      value: 0
      objectReference: {fileID: 0}
    - target: {fileID: 4868021045032285059, guid: 1b1842160f23d894dbd6876017001e2b, type: 3}
      propertyPath: m_LocalEulerAnglesHint.z
      value: 0
      objectReference: {fileID: 0}
    - target: {fileID: 4868021045032285069, guid: 1b1842160f23d894dbd6876017001e2b, type: 3}
      propertyPath: m_Name
      value: GridManager
      objectReference: {fileID: 0}
    m_RemovedComponents: []
  m_SourcePrefab: {fileID: 100100000, guid: 1b1842160f23d894dbd6876017001e2b, type: 3}
--- !u!1001 &1483141172
PrefabInstance:
  m_ObjectHideFlags: 0
  serializedVersion: 2
  m_Modification:
    m_TransformParent: {fileID: 0}
    m_Modifications:
    - target: {fileID: 30224558416480953, guid: 4c5d7ec268fa30f4a9c59c3e34b3e847, type: 3}
      propertyPath: m_AnchorMax.y
      value: 1
      objectReference: {fileID: 0}
    - target: {fileID: 30224558416480953, guid: 4c5d7ec268fa30f4a9c59c3e34b3e847, type: 3}
      propertyPath: m_AnchorMin.y
      value: 1
      objectReference: {fileID: 0}
    - target: {fileID: 30224558416480953, guid: 4c5d7ec268fa30f4a9c59c3e34b3e847, type: 3}
      propertyPath: m_SizeDelta.x
      value: 110.68272
      objectReference: {fileID: 0}
    - target: {fileID: 30224558416480953, guid: 4c5d7ec268fa30f4a9c59c3e34b3e847, type: 3}
      propertyPath: m_SizeDelta.y
      value: 90
      objectReference: {fileID: 0}
    - target: {fileID: 30224558416480953, guid: 4c5d7ec268fa30f4a9c59c3e34b3e847, type: 3}
      propertyPath: m_AnchoredPosition.x
      value: 60.34136
      objectReference: {fileID: 0}
    - target: {fileID: 30224558416480953, guid: 4c5d7ec268fa30f4a9c59c3e34b3e847, type: 3}
      propertyPath: m_AnchoredPosition.y
      value: -50
      objectReference: {fileID: 0}
    - target: {fileID: 762944107698099067, guid: 4c5d7ec268fa30f4a9c59c3e34b3e847, type: 3}
      propertyPath: m_AnchorMax.y
      value: 0
      objectReference: {fileID: 0}
    - target: {fileID: 762944107698099067, guid: 4c5d7ec268fa30f4a9c59c3e34b3e847, type: 3}
      propertyPath: m_AnchorMin.y
      value: 0
      objectReference: {fileID: 0}
    - target: {fileID: 762944107698099067, guid: 4c5d7ec268fa30f4a9c59c3e34b3e847, type: 3}
      propertyPath: m_SizeDelta.x
      value: 0
      objectReference: {fileID: 0}
    - target: {fileID: 762944107698099067, guid: 4c5d7ec268fa30f4a9c59c3e34b3e847, type: 3}
      propertyPath: m_SizeDelta.y
      value: 0
      objectReference: {fileID: 0}
    - target: {fileID: 762944107698099067, guid: 4c5d7ec268fa30f4a9c59c3e34b3e847, type: 3}
      propertyPath: m_AnchoredPosition.x
      value: 0
      objectReference: {fileID: 0}
    - target: {fileID: 762944107698099067, guid: 4c5d7ec268fa30f4a9c59c3e34b3e847, type: 3}
      propertyPath: m_AnchoredPosition.y
      value: 0
      objectReference: {fileID: 0}
    - target: {fileID: 3179852988956286172, guid: 4c5d7ec268fa30f4a9c59c3e34b3e847, type: 3}
      propertyPath: m_AnchorMax.y
      value: 0
      objectReference: {fileID: 0}
    - target: {fileID: 3179852988956286172, guid: 4c5d7ec268fa30f4a9c59c3e34b3e847, type: 3}
      propertyPath: m_AnchorMin.y
      value: 0
      objectReference: {fileID: 0}
    - target: {fileID: 3179852988956286172, guid: 4c5d7ec268fa30f4a9c59c3e34b3e847, type: 3}
      propertyPath: m_AnchoredPosition.x
      value: 0
      objectReference: {fileID: 0}
    - target: {fileID: 3179852988956286172, guid: 4c5d7ec268fa30f4a9c59c3e34b3e847, type: 3}
      propertyPath: m_AnchoredPosition.y
      value: 0
      objectReference: {fileID: 0}
    - target: {fileID: 3179852988956286178, guid: 4c5d7ec268fa30f4a9c59c3e34b3e847, type: 3}
      propertyPath: m_Sprite
      value: 
      objectReference: {fileID: 21300000, guid: ea71534922f91a5f080f7c49272310c9, type: 3}
    - target: {fileID: 3179852989391049376, guid: 4c5d7ec268fa30f4a9c59c3e34b3e847, type: 3}
      propertyPath: m_Name
      value: GameUI&Input
      objectReference: {fileID: 0}
    - target: {fileID: 3179852989391049377, guid: 4c5d7ec268fa30f4a9c59c3e34b3e847, type: 3}
      propertyPath: m_BlockingObjects
      value: 3
      objectReference: {fileID: 0}
    - target: {fileID: 3179852989391049380, guid: 4c5d7ec268fa30f4a9c59c3e34b3e847, type: 3}
      propertyPath: m_Pivot.x
      value: 0
      objectReference: {fileID: 0}
    - target: {fileID: 3179852989391049380, guid: 4c5d7ec268fa30f4a9c59c3e34b3e847, type: 3}
      propertyPath: m_Pivot.y
      value: 0
      objectReference: {fileID: 0}
    - target: {fileID: 3179852989391049380, guid: 4c5d7ec268fa30f4a9c59c3e34b3e847, type: 3}
      propertyPath: m_RootOrder
      value: 3
      objectReference: {fileID: 0}
    - target: {fileID: 3179852989391049380, guid: 4c5d7ec268fa30f4a9c59c3e34b3e847, type: 3}
      propertyPath: m_AnchorMax.x
      value: 0
      objectReference: {fileID: 0}
    - target: {fileID: 3179852989391049380, guid: 4c5d7ec268fa30f4a9c59c3e34b3e847, type: 3}
      propertyPath: m_AnchorMax.y
      value: 0
      objectReference: {fileID: 0}
    - target: {fileID: 3179852989391049380, guid: 4c5d7ec268fa30f4a9c59c3e34b3e847, type: 3}
      propertyPath: m_AnchorMin.x
      value: 0
      objectReference: {fileID: 0}
    - target: {fileID: 3179852989391049380, guid: 4c5d7ec268fa30f4a9c59c3e34b3e847, type: 3}
      propertyPath: m_AnchorMin.y
      value: 0
      objectReference: {fileID: 0}
    - target: {fileID: 3179852989391049380, guid: 4c5d7ec268fa30f4a9c59c3e34b3e847, type: 3}
      propertyPath: m_SizeDelta.x
      value: 0
      objectReference: {fileID: 0}
    - target: {fileID: 3179852989391049380, guid: 4c5d7ec268fa30f4a9c59c3e34b3e847, type: 3}
      propertyPath: m_SizeDelta.y
      value: 0
      objectReference: {fileID: 0}
    - target: {fileID: 3179852989391049380, guid: 4c5d7ec268fa30f4a9c59c3e34b3e847, type: 3}
      propertyPath: m_LocalPosition.x
      value: 0
      objectReference: {fileID: 0}
    - target: {fileID: 3179852989391049380, guid: 4c5d7ec268fa30f4a9c59c3e34b3e847, type: 3}
      propertyPath: m_LocalPosition.y
      value: 0
      objectReference: {fileID: 0}
    - target: {fileID: 3179852989391049380, guid: 4c5d7ec268fa30f4a9c59c3e34b3e847, type: 3}
      propertyPath: m_LocalPosition.z
      value: 0
      objectReference: {fileID: 0}
    - target: {fileID: 3179852989391049380, guid: 4c5d7ec268fa30f4a9c59c3e34b3e847, type: 3}
      propertyPath: m_LocalRotation.w
      value: 1
      objectReference: {fileID: 0}
    - target: {fileID: 3179852989391049380, guid: 4c5d7ec268fa30f4a9c59c3e34b3e847, type: 3}
      propertyPath: m_LocalRotation.x
      value: 0
      objectReference: {fileID: 0}
    - target: {fileID: 3179852989391049380, guid: 4c5d7ec268fa30f4a9c59c3e34b3e847, type: 3}
      propertyPath: m_LocalRotation.y
      value: 0
      objectReference: {fileID: 0}
    - target: {fileID: 3179852989391049380, guid: 4c5d7ec268fa30f4a9c59c3e34b3e847, type: 3}
      propertyPath: m_LocalRotation.z
      value: 0
      objectReference: {fileID: 0}
    - target: {fileID: 3179852989391049380, guid: 4c5d7ec268fa30f4a9c59c3e34b3e847, type: 3}
      propertyPath: m_AnchoredPosition.x
      value: 0
      objectReference: {fileID: 0}
    - target: {fileID: 3179852989391049380, guid: 4c5d7ec268fa30f4a9c59c3e34b3e847, type: 3}
      propertyPath: m_AnchoredPosition.y
      value: 0
      objectReference: {fileID: 0}
    - target: {fileID: 3179852989391049380, guid: 4c5d7ec268fa30f4a9c59c3e34b3e847, type: 3}
      propertyPath: m_LocalEulerAnglesHint.x
      value: 0
      objectReference: {fileID: 0}
    - target: {fileID: 3179852989391049380, guid: 4c5d7ec268fa30f4a9c59c3e34b3e847, type: 3}
      propertyPath: m_LocalEulerAnglesHint.y
      value: 0
      objectReference: {fileID: 0}
    - target: {fileID: 3179852989391049380, guid: 4c5d7ec268fa30f4a9c59c3e34b3e847, type: 3}
      propertyPath: m_LocalEulerAnglesHint.z
      value: 0
      objectReference: {fileID: 0}
    - target: {fileID: 3179852989391049381, guid: 4c5d7ec268fa30f4a9c59c3e34b3e847, type: 3}
      propertyPath: gridSystem
      value: 
      objectReference: {fileID: 549988243}
    - target: {fileID: 3179852989391049381, guid: 4c5d7ec268fa30f4a9c59c3e34b3e847, type: 3}
      propertyPath: expandPanel
      value: 
      objectReference: {fileID: 744309640}
    - target: {fileID: 3179852989391049381, guid: 4c5d7ec268fa30f4a9c59c3e34b3e847, type: 3}
      propertyPath: seedButtonsIn.Array.size
      value: 5
      objectReference: {fileID: 0}
    - target: {fileID: 3179852989421983772, guid: 4c5d7ec268fa30f4a9c59c3e34b3e847, type: 3}
      propertyPath: m_AnchorMax.y
      value: 0
      objectReference: {fileID: 0}
    - target: {fileID: 3179852989421983772, guid: 4c5d7ec268fa30f4a9c59c3e34b3e847, type: 3}
      propertyPath: m_AnchorMin.y
      value: 0
      objectReference: {fileID: 0}
    - target: {fileID: 3179852989421983772, guid: 4c5d7ec268fa30f4a9c59c3e34b3e847, type: 3}
      propertyPath: m_SizeDelta.x
      value: 160
      objectReference: {fileID: 0}
    - target: {fileID: 3179852989421983772, guid: 4c5d7ec268fa30f4a9c59c3e34b3e847, type: 3}
      propertyPath: m_SizeDelta.y
      value: 160
      objectReference: {fileID: 0}
    - target: {fileID: 3179852989421983772, guid: 4c5d7ec268fa30f4a9c59c3e34b3e847, type: 3}
      propertyPath: m_AnchoredPosition.x
      value: 0
      objectReference: {fileID: 0}
    - target: {fileID: 3179852989421983772, guid: 4c5d7ec268fa30f4a9c59c3e34b3e847, type: 3}
      propertyPath: m_AnchoredPosition.y
      value: 0
      objectReference: {fileID: 0}
    - target: {fileID: 3179852989421983778, guid: 4c5d7ec268fa30f4a9c59c3e34b3e847, type: 3}
      propertyPath: m_Sprite
      value: 
      objectReference: {fileID: 21300000, guid: fc74339646f32b0978847f7955a1d6c3, type: 3}
    - target: {fileID: 3179852989421983779, guid: 4c5d7ec268fa30f4a9c59c3e34b3e847, type: 3}
      propertyPath: m_CullTransparentMesh
      value: 1
      objectReference: {fileID: 0}
    - target: {fileID: 3179852989646217064, guid: 4c5d7ec268fa30f4a9c59c3e34b3e847, type: 3}
      propertyPath: m_Sprite
      value: 
      objectReference: {fileID: 21300000, guid: b3ec5b0a08d04195297bef2fd1999f76, type: 3}
    - target: {fileID: 3179852989646217066, guid: 4c5d7ec268fa30f4a9c59c3e34b3e847, type: 3}
      propertyPath: m_AnchorMax.y
      value: 0
      objectReference: {fileID: 0}
    - target: {fileID: 3179852989646217066, guid: 4c5d7ec268fa30f4a9c59c3e34b3e847, type: 3}
      propertyPath: m_AnchorMin.y
      value: 0
      objectReference: {fileID: 0}
    - target: {fileID: 3179852989646217066, guid: 4c5d7ec268fa30f4a9c59c3e34b3e847, type: 3}
      propertyPath: m_AnchoredPosition.x
      value: 0
      objectReference: {fileID: 0}
    - target: {fileID: 3179852989646217066, guid: 4c5d7ec268fa30f4a9c59c3e34b3e847, type: 3}
      propertyPath: m_AnchoredPosition.y
      value: 0
      objectReference: {fileID: 0}
    - target: {fileID: 3659156866053302790, guid: 4c5d7ec268fa30f4a9c59c3e34b3e847, type: 3}
      propertyPath: m_IsActive
      value: 0
      objectReference: {fileID: 0}
    - target: {fileID: 3706796457703421818, guid: 4c5d7ec268fa30f4a9c59c3e34b3e847, type: 3}
      propertyPath: m_AnchorMax.y
      value: 0
      objectReference: {fileID: 0}
    - target: {fileID: 3706796457703421818, guid: 4c5d7ec268fa30f4a9c59c3e34b3e847, type: 3}
      propertyPath: m_AnchorMin.y
      value: 0
      objectReference: {fileID: 0}
    - target: {fileID: 3706796457703421818, guid: 4c5d7ec268fa30f4a9c59c3e34b3e847, type: 3}
      propertyPath: m_SizeDelta.x
      value: 0
      objectReference: {fileID: 0}
    - target: {fileID: 3706796457703421818, guid: 4c5d7ec268fa30f4a9c59c3e34b3e847, type: 3}
      propertyPath: m_SizeDelta.y
      value: 0
      objectReference: {fileID: 0}
    - target: {fileID: 3706796457703421818, guid: 4c5d7ec268fa30f4a9c59c3e34b3e847, type: 3}
      propertyPath: m_AnchoredPosition.x
      value: 0
      objectReference: {fileID: 0}
    - target: {fileID: 3706796457703421818, guid: 4c5d7ec268fa30f4a9c59c3e34b3e847, type: 3}
      propertyPath: m_AnchoredPosition.y
      value: 0
      objectReference: {fileID: 0}
    - target: {fileID: 4004566432429247806, guid: 4c5d7ec268fa30f4a9c59c3e34b3e847, type: 3}
      propertyPath: m_AnchorMax.y
      value: 0
      objectReference: {fileID: 0}
    - target: {fileID: 4004566432429247806, guid: 4c5d7ec268fa30f4a9c59c3e34b3e847, type: 3}
      propertyPath: m_AnchorMin.y
      value: 0
      objectReference: {fileID: 0}
    - target: {fileID: 4004566432429247806, guid: 4c5d7ec268fa30f4a9c59c3e34b3e847, type: 3}
      propertyPath: m_SizeDelta.x
      value: 0
      objectReference: {fileID: 0}
    - target: {fileID: 4004566432429247806, guid: 4c5d7ec268fa30f4a9c59c3e34b3e847, type: 3}
      propertyPath: m_SizeDelta.y
      value: 0
      objectReference: {fileID: 0}
    - target: {fileID: 4004566432429247806, guid: 4c5d7ec268fa30f4a9c59c3e34b3e847, type: 3}
      propertyPath: m_AnchoredPosition.x
      value: 0
      objectReference: {fileID: 0}
    - target: {fileID: 4004566432429247806, guid: 4c5d7ec268fa30f4a9c59c3e34b3e847, type: 3}
      propertyPath: m_AnchoredPosition.y
      value: 0
      objectReference: {fileID: 0}
    - target: {fileID: 4041022329554400638, guid: 4c5d7ec268fa30f4a9c59c3e34b3e847, type: 3}
      propertyPath: m_AnchorMax.y
      value: 1
      objectReference: {fileID: 0}
    - target: {fileID: 4041022329554400638, guid: 4c5d7ec268fa30f4a9c59c3e34b3e847, type: 3}
      propertyPath: m_AnchorMin.y
      value: 1
      objectReference: {fileID: 0}
    - target: {fileID: 4041022329554400638, guid: 4c5d7ec268fa30f4a9c59c3e34b3e847, type: 3}
      propertyPath: m_SizeDelta.x
      value: 79.317276
      objectReference: {fileID: 0}
    - target: {fileID: 4041022329554400638, guid: 4c5d7ec268fa30f4a9c59c3e34b3e847, type: 3}
      propertyPath: m_SizeDelta.y
      value: 90
      objectReference: {fileID: 0}
    - target: {fileID: 4041022329554400638, guid: 4c5d7ec268fa30f4a9c59c3e34b3e847, type: 3}
      propertyPath: m_AnchoredPosition.x
      value: 155.34135
      objectReference: {fileID: 0}
    - target: {fileID: 4041022329554400638, guid: 4c5d7ec268fa30f4a9c59c3e34b3e847, type: 3}
      propertyPath: m_AnchoredPosition.y
      value: -50
      objectReference: {fileID: 0}
    - target: {fileID: 4513814663471718554, guid: 4c5d7ec268fa30f4a9c59c3e34b3e847, type: 3}
      propertyPath: m_AnchorMax.y
      value: 0
      objectReference: {fileID: 0}
    - target: {fileID: 4513814663471718554, guid: 4c5d7ec268fa30f4a9c59c3e34b3e847, type: 3}
      propertyPath: m_AnchorMin.y
      value: 0
      objectReference: {fileID: 0}
    - target: {fileID: 4513814663471718554, guid: 4c5d7ec268fa30f4a9c59c3e34b3e847, type: 3}
      propertyPath: m_SizeDelta.x
      value: 0
      objectReference: {fileID: 0}
    - target: {fileID: 4513814663471718554, guid: 4c5d7ec268fa30f4a9c59c3e34b3e847, type: 3}
      propertyPath: m_SizeDelta.y
      value: 0
      objectReference: {fileID: 0}
    - target: {fileID: 4513814663471718554, guid: 4c5d7ec268fa30f4a9c59c3e34b3e847, type: 3}
      propertyPath: m_AnchoredPosition.x
      value: 0
      objectReference: {fileID: 0}
    - target: {fileID: 4513814663471718554, guid: 4c5d7ec268fa30f4a9c59c3e34b3e847, type: 3}
      propertyPath: m_AnchoredPosition.y
      value: 0
      objectReference: {fileID: 0}
    - target: {fileID: 5105173729002777899, guid: 4c5d7ec268fa30f4a9c59c3e34b3e847, type: 3}
      propertyPath: m_AnchorMax.y
      value: 0
      objectReference: {fileID: 0}
    - target: {fileID: 5105173729002777899, guid: 4c5d7ec268fa30f4a9c59c3e34b3e847, type: 3}
      propertyPath: m_AnchorMin.y
      value: 0
      objectReference: {fileID: 0}
    - target: {fileID: 5105173729002777899, guid: 4c5d7ec268fa30f4a9c59c3e34b3e847, type: 3}
      propertyPath: m_SizeDelta.x
      value: 0
      objectReference: {fileID: 0}
    - target: {fileID: 5105173729002777899, guid: 4c5d7ec268fa30f4a9c59c3e34b3e847, type: 3}
      propertyPath: m_SizeDelta.y
      value: 0
      objectReference: {fileID: 0}
    - target: {fileID: 5105173729002777899, guid: 4c5d7ec268fa30f4a9c59c3e34b3e847, type: 3}
      propertyPath: m_AnchoredPosition.x
      value: 0
      objectReference: {fileID: 0}
    - target: {fileID: 5105173729002777899, guid: 4c5d7ec268fa30f4a9c59c3e34b3e847, type: 3}
      propertyPath: m_AnchoredPosition.y
      value: 0
      objectReference: {fileID: 0}
    - target: {fileID: 5541705037249832891, guid: 4c5d7ec268fa30f4a9c59c3e34b3e847, type: 3}
      propertyPath: m_AnchorMax.y
      value: 0
      objectReference: {fileID: 0}
    - target: {fileID: 5541705037249832891, guid: 4c5d7ec268fa30f4a9c59c3e34b3e847, type: 3}
      propertyPath: m_AnchorMin.y
      value: 0
      objectReference: {fileID: 0}
    - target: {fileID: 5541705037249832891, guid: 4c5d7ec268fa30f4a9c59c3e34b3e847, type: 3}
      propertyPath: m_SizeDelta.x
      value: 0
      objectReference: {fileID: 0}
    - target: {fileID: 5541705037249832891, guid: 4c5d7ec268fa30f4a9c59c3e34b3e847, type: 3}
      propertyPath: m_SizeDelta.y
      value: 0
      objectReference: {fileID: 0}
    - target: {fileID: 5541705037249832891, guid: 4c5d7ec268fa30f4a9c59c3e34b3e847, type: 3}
      propertyPath: m_AnchoredPosition.x
      value: 0
      objectReference: {fileID: 0}
    - target: {fileID: 5541705037249832891, guid: 4c5d7ec268fa30f4a9c59c3e34b3e847, type: 3}
      propertyPath: m_AnchoredPosition.y
      value: 0
      objectReference: {fileID: 0}
    - target: {fileID: 7231938101862998372, guid: 4c5d7ec268fa30f4a9c59c3e34b3e847, type: 3}
      propertyPath: m_AnchorMax.y
      value: 0
      objectReference: {fileID: 0}
    - target: {fileID: 7231938101862998372, guid: 4c5d7ec268fa30f4a9c59c3e34b3e847, type: 3}
      propertyPath: m_AnchorMin.y
      value: 0
      objectReference: {fileID: 0}
    - target: {fileID: 7231938101862998372, guid: 4c5d7ec268fa30f4a9c59c3e34b3e847, type: 3}
      propertyPath: m_SizeDelta.x
      value: 0
      objectReference: {fileID: 0}
    - target: {fileID: 7231938101862998372, guid: 4c5d7ec268fa30f4a9c59c3e34b3e847, type: 3}
      propertyPath: m_SizeDelta.y
      value: 0
      objectReference: {fileID: 0}
    - target: {fileID: 7231938101862998372, guid: 4c5d7ec268fa30f4a9c59c3e34b3e847, type: 3}
      propertyPath: m_AnchoredPosition.x
      value: 0
      objectReference: {fileID: 0}
    - target: {fileID: 7231938101862998372, guid: 4c5d7ec268fa30f4a9c59c3e34b3e847, type: 3}
      propertyPath: m_AnchoredPosition.y
      value: 0
      objectReference: {fileID: 0}
    m_RemovedComponents: []
  m_SourcePrefab: {fileID: 100100000, guid: 4c5d7ec268fa30f4a9c59c3e34b3e847, type: 3}
--- !u!1 &1713023100
GameObject:
  m_ObjectHideFlags: 0
  m_CorrespondingSourceObject: {fileID: 0}
  m_PrefabInstance: {fileID: 0}
  m_PrefabAsset: {fileID: 0}
  serializedVersion: 6
  m_Component:
  - component: {fileID: 1713023103}
  - component: {fileID: 1713023102}
  - component: {fileID: 1713023101}
  m_Layer: 0
  m_Name: EventSystem
  m_TagString: Untagged
  m_Icon: {fileID: 0}
  m_NavMeshLayer: 0
  m_StaticEditorFlags: 0
  m_IsActive: 1
--- !u!114 &1713023101
MonoBehaviour:
  m_ObjectHideFlags: 0
  m_CorrespondingSourceObject: {fileID: 0}
  m_PrefabInstance: {fileID: 0}
  m_PrefabAsset: {fileID: 0}
  m_GameObject: {fileID: 1713023100}
  m_Enabled: 1
  m_EditorHideFlags: 0
  m_Script: {fileID: 11500000, guid: 4f231c4fb786f3946a6b90b886c48677, type: 3}
  m_Name: 
  m_EditorClassIdentifier: 
  m_HorizontalAxis: Horizontal
  m_VerticalAxis: Vertical
  m_SubmitButton: Submit
  m_CancelButton: Cancel
  m_InputActionsPerSecond: 10
  m_RepeatDelay: 0.5
  m_ForceModuleActive: 0
--- !u!114 &1713023102
MonoBehaviour:
  m_ObjectHideFlags: 0
  m_CorrespondingSourceObject: {fileID: 0}
  m_PrefabInstance: {fileID: 0}
  m_PrefabAsset: {fileID: 0}
  m_GameObject: {fileID: 1713023100}
  m_Enabled: 1
  m_EditorHideFlags: 0
  m_Script: {fileID: 11500000, guid: 76c392e42b5098c458856cdf6ecaaaa1, type: 3}
  m_Name: 
  m_EditorClassIdentifier: 
  m_FirstSelected: {fileID: 0}
  m_sendNavigationEvents: 1
  m_DragThreshold: 10
--- !u!4 &1713023103
Transform:
  m_ObjectHideFlags: 0
  m_CorrespondingSourceObject: {fileID: 0}
  m_PrefabInstance: {fileID: 0}
  m_PrefabAsset: {fileID: 0}
  m_GameObject: {fileID: 1713023100}
  m_LocalRotation: {x: 0, y: 0, z: 0, w: 1}
  m_LocalPosition: {x: 0, y: 0, z: 0}
  m_LocalScale: {x: 1, y: 1, z: 1}
  m_Children: []
  m_Father: {fileID: 0}
  m_RootOrder: 4
  m_LocalEulerAnglesHint: {x: 0, y: 0, z: 0}
--- !u!1 &1870914023
GameObject:
  m_ObjectHideFlags: 0
  m_CorrespondingSourceObject: {fileID: 0}
  m_PrefabInstance: {fileID: 0}
  m_PrefabAsset: {fileID: 0}
  serializedVersion: 6
  m_Component:
  - component: {fileID: 1870914025}
  - component: {fileID: 1870914024}
  m_Layer: 0
  m_Name: Directional Light
  m_TagString: Untagged
  m_Icon: {fileID: 0}
  m_NavMeshLayer: 0
  m_StaticEditorFlags: 0
  m_IsActive: 1
--- !u!108 &1870914024
Light:
  m_ObjectHideFlags: 0
  m_CorrespondingSourceObject: {fileID: 0}
  m_PrefabInstance: {fileID: 0}
  m_PrefabAsset: {fileID: 0}
  m_GameObject: {fileID: 1870914023}
  m_Enabled: 1
  serializedVersion: 10
  m_Type: 1
  m_Shape: 0
  m_Color: {r: 1, g: 0.95686275, b: 0.8392157, a: 1}
  m_Intensity: 1
  m_Range: 10
  m_SpotAngle: 30
  m_InnerSpotAngle: 21.80208
  m_CookieSize: 10
  m_Shadows:
    m_Type: 2
    m_Resolution: -1
    m_CustomResolution: -1
    m_Strength: 1
    m_Bias: 0.05
    m_NormalBias: 0.4
    m_NearPlane: 0.2
    m_CullingMatrixOverride:
      e00: 1
      e01: 0
      e02: 0
      e03: 0
      e10: 0
      e11: 1
      e12: 0
      e13: 0
      e20: 0
      e21: 0
      e22: 1
      e23: 0
      e30: 0
      e31: 0
      e32: 0
      e33: 1
    m_UseCullingMatrixOverride: 0
  m_Cookie: {fileID: 0}
  m_DrawHalo: 0
  m_Flare: {fileID: 0}
  m_RenderMode: 0
  m_CullingMask:
    serializedVersion: 2
    m_Bits: 4294967295
  m_RenderingLayerMask: 1
  m_Lightmapping: 4
  m_LightShadowCasterMode: 0
  m_AreaSize: {x: 1, y: 1}
  m_BounceIntensity: 1
  m_ColorTemperature: 6570
  m_UseColorTemperature: 0
  m_BoundingSphereOverride: {x: 0, y: 0, z: 0, w: 0}
  m_UseBoundingSphereOverride: 0
  m_UseViewFrustumForShadowCasterCull: 1
  m_ShadowRadius: 0
  m_ShadowAngle: 0
--- !u!4 &1870914025
Transform:
  m_ObjectHideFlags: 0
  m_CorrespondingSourceObject: {fileID: 0}
  m_PrefabInstance: {fileID: 0}
  m_PrefabAsset: {fileID: 0}
  m_GameObject: {fileID: 1870914023}
  m_LocalRotation: {x: 0.40821788, y: -0.23456968, z: 0.10938163, w: 0.8754261}
  m_LocalPosition: {x: 0, y: 3, z: 0}
  m_LocalScale: {x: 1, y: 1, z: 1}
  m_Children: []
  m_Father: {fileID: 0}
  m_RootOrder: 1
  m_LocalEulerAnglesHint: {x: 50, y: -30, z: 0}
--- !u!1001 &1683200092711598509
PrefabInstance:
  m_ObjectHideFlags: 0
  serializedVersion: 2
  m_Modification:
    m_TransformParent: {fileID: 0}
    m_Modifications:
    - target: {fileID: 1979599939930476657, guid: e905f3946bc65ef46aa51f03591bf63d, type: 3}
      propertyPath: m_Name
      value: Cylinder
      objectReference: {fileID: 0}
    - target: {fileID: 6849060724603162423, guid: e905f3946bc65ef46aa51f03591bf63d, type: 3}
      propertyPath: m_RootOrder
      value: 8
      objectReference: {fileID: 0}
    - target: {fileID: 6849060724603162423, guid: e905f3946bc65ef46aa51f03591bf63d, type: 3}
      propertyPath: m_LocalPosition.x
      value: 769.2104
      objectReference: {fileID: 0}
    - target: {fileID: 6849060724603162423, guid: e905f3946bc65ef46aa51f03591bf63d, type: 3}
      propertyPath: m_LocalPosition.y
      value: 138.41109
      objectReference: {fileID: 0}
    - target: {fileID: 6849060724603162423, guid: e905f3946bc65ef46aa51f03591bf63d, type: 3}
      propertyPath: m_LocalPosition.z
      value: 333.76636
      objectReference: {fileID: 0}
    - target: {fileID: 6849060724603162423, guid: e905f3946bc65ef46aa51f03591bf63d, type: 3}
      propertyPath: m_LocalRotation.w
      value: 1
      objectReference: {fileID: 0}
    - target: {fileID: 6849060724603162423, guid: e905f3946bc65ef46aa51f03591bf63d, type: 3}
      propertyPath: m_LocalRotation.x
      value: 0
      objectReference: {fileID: 0}
    - target: {fileID: 6849060724603162423, guid: e905f3946bc65ef46aa51f03591bf63d, type: 3}
      propertyPath: m_LocalRotation.y
      value: 0
      objectReference: {fileID: 0}
    - target: {fileID: 6849060724603162423, guid: e905f3946bc65ef46aa51f03591bf63d, type: 3}
      propertyPath: m_LocalRotation.z
      value: 0
      objectReference: {fileID: 0}
    - target: {fileID: 6849060724603162423, guid: e905f3946bc65ef46aa51f03591bf63d, type: 3}
      propertyPath: m_LocalEulerAnglesHint.x
      value: 0
      objectReference: {fileID: 0}
    - target: {fileID: 6849060724603162423, guid: e905f3946bc65ef46aa51f03591bf63d, type: 3}
      propertyPath: m_LocalEulerAnglesHint.y
      value: 0
      objectReference: {fileID: 0}
    - target: {fileID: 6849060724603162423, guid: e905f3946bc65ef46aa51f03591bf63d, type: 3}
      propertyPath: m_LocalEulerAnglesHint.z
      value: 0
      objectReference: {fileID: 0}
    m_RemovedComponents: []
  m_SourcePrefab: {fileID: 100100000, guid: e905f3946bc65ef46aa51f03591bf63d, type: 3}
--- !u!1001 &4137088238897956831
PrefabInstance:
  m_ObjectHideFlags: 0
  serializedVersion: 2
  m_Modification:
    m_TransformParent: {fileID: 0}
    m_Modifications:
    - target: {fileID: 4382244764547995203, guid: 1a0bf7f484d5f8647bdddba2074b1c49, type: 3}
      propertyPath: m_Name
      value: Capsule
      objectReference: {fileID: 0}
    - target: {fileID: 4774259407160024927, guid: 1a0bf7f484d5f8647bdddba2074b1c49, type: 3}
      propertyPath: m_RootOrder
      value: 7
      objectReference: {fileID: 0}
    - target: {fileID: 4774259407160024927, guid: 1a0bf7f484d5f8647bdddba2074b1c49, type: 3}
      propertyPath: m_LocalPosition.x
      value: 769.2104
      objectReference: {fileID: 0}
    - target: {fileID: 4774259407160024927, guid: 1a0bf7f484d5f8647bdddba2074b1c49, type: 3}
      propertyPath: m_LocalPosition.y
      value: 138.41109
      objectReference: {fileID: 0}
    - target: {fileID: 4774259407160024927, guid: 1a0bf7f484d5f8647bdddba2074b1c49, type: 3}
      propertyPath: m_LocalPosition.z
      value: 333.76636
      objectReference: {fileID: 0}
    - target: {fileID: 4774259407160024927, guid: 1a0bf7f484d5f8647bdddba2074b1c49, type: 3}
      propertyPath: m_LocalRotation.w
      value: 1
      objectReference: {fileID: 0}
    - target: {fileID: 4774259407160024927, guid: 1a0bf7f484d5f8647bdddba2074b1c49, type: 3}
      propertyPath: m_LocalRotation.x
      value: 0
      objectReference: {fileID: 0}
    - target: {fileID: 4774259407160024927, guid: 1a0bf7f484d5f8647bdddba2074b1c49, type: 3}
      propertyPath: m_LocalRotation.y
      value: 0
      objectReference: {fileID: 0}
    - target: {fileID: 4774259407160024927, guid: 1a0bf7f484d5f8647bdddba2074b1c49, type: 3}
      propertyPath: m_LocalRotation.z
      value: 0
      objectReference: {fileID: 0}
    - target: {fileID: 4774259407160024927, guid: 1a0bf7f484d5f8647bdddba2074b1c49, type: 3}
      propertyPath: m_LocalEulerAnglesHint.x
      value: 0
      objectReference: {fileID: 0}
    - target: {fileID: 4774259407160024927, guid: 1a0bf7f484d5f8647bdddba2074b1c49, type: 3}
      propertyPath: m_LocalEulerAnglesHint.y
      value: 0
      objectReference: {fileID: 0}
    - target: {fileID: 4774259407160024927, guid: 1a0bf7f484d5f8647bdddba2074b1c49, type: 3}
      propertyPath: m_LocalEulerAnglesHint.z
      value: 0
      objectReference: {fileID: 0}
    m_RemovedComponents: []
  m_SourcePrefab: {fileID: 100100000, guid: 1a0bf7f484d5f8647bdddba2074b1c49, type: 3}
--- !u!1001 &6935749959358998020
PrefabInstance:
  m_ObjectHideFlags: 0
  serializedVersion: 2
  m_Modification:
    m_TransformParent: {fileID: 0}
    m_Modifications:
    - target: {fileID: 3286255071303354104, guid: 28d5808317c49374cadfb4bd5f93f84f, type: 3}
      propertyPath: m_Name
      value: Sphere
      objectReference: {fileID: 0}
    - target: {fileID: 5489416568872350778, guid: 28d5808317c49374cadfb4bd5f93f84f, type: 3}
      propertyPath: m_RootOrder
      value: 6
      objectReference: {fileID: 0}
    - target: {fileID: 5489416568872350778, guid: 28d5808317c49374cadfb4bd5f93f84f, type: 3}
      propertyPath: m_LocalPosition.x
      value: 769.2104
      objectReference: {fileID: 0}
    - target: {fileID: 5489416568872350778, guid: 28d5808317c49374cadfb4bd5f93f84f, type: 3}
      propertyPath: m_LocalPosition.y
      value: 138.41109
      objectReference: {fileID: 0}
    - target: {fileID: 5489416568872350778, guid: 28d5808317c49374cadfb4bd5f93f84f, type: 3}
      propertyPath: m_LocalPosition.z
      value: 333.76636
      objectReference: {fileID: 0}
    - target: {fileID: 5489416568872350778, guid: 28d5808317c49374cadfb4bd5f93f84f, type: 3}
      propertyPath: m_LocalRotation.w
      value: 1
      objectReference: {fileID: 0}
    - target: {fileID: 5489416568872350778, guid: 28d5808317c49374cadfb4bd5f93f84f, type: 3}
      propertyPath: m_LocalRotation.x
      value: 0
      objectReference: {fileID: 0}
    - target: {fileID: 5489416568872350778, guid: 28d5808317c49374cadfb4bd5f93f84f, type: 3}
      propertyPath: m_LocalRotation.y
      value: 0
      objectReference: {fileID: 0}
    - target: {fileID: 5489416568872350778, guid: 28d5808317c49374cadfb4bd5f93f84f, type: 3}
      propertyPath: m_LocalRotation.z
      value: 0
      objectReference: {fileID: 0}
    - target: {fileID: 5489416568872350778, guid: 28d5808317c49374cadfb4bd5f93f84f, type: 3}
      propertyPath: m_LocalEulerAnglesHint.x
      value: 0
      objectReference: {fileID: 0}
    - target: {fileID: 5489416568872350778, guid: 28d5808317c49374cadfb4bd5f93f84f, type: 3}
      propertyPath: m_LocalEulerAnglesHint.y
      value: 0
      objectReference: {fileID: 0}
    - target: {fileID: 5489416568872350778, guid: 28d5808317c49374cadfb4bd5f93f84f, type: 3}
      propertyPath: m_LocalEulerAnglesHint.z
      value: 0
      objectReference: {fileID: 0}
    m_RemovedComponents: []
  m_SourcePrefab: {fileID: 100100000, guid: 28d5808317c49374cadfb4bd5f93f84f, type: 3}
--- !u!1001 &8543064064618597391
PrefabInstance:
  m_ObjectHideFlags: 0
  serializedVersion: 2
  m_Modification:
    m_TransformParent: {fileID: 0}
    m_Modifications:
    - target: {fileID: 156162505873487013, guid: 7e0723ddd0199ea4dab9b0ca492ef771, type: 3}
      propertyPath: m_RootOrder
      value: 5
      objectReference: {fileID: 0}
    - target: {fileID: 156162505873487013, guid: 7e0723ddd0199ea4dab9b0ca492ef771, type: 3}
      propertyPath: m_LocalPosition.x
      value: 769.2104
      objectReference: {fileID: 0}
    - target: {fileID: 156162505873487013, guid: 7e0723ddd0199ea4dab9b0ca492ef771, type: 3}
      propertyPath: m_LocalPosition.y
      value: 138.41109
      objectReference: {fileID: 0}
    - target: {fileID: 156162505873487013, guid: 7e0723ddd0199ea4dab9b0ca492ef771, type: 3}
      propertyPath: m_LocalPosition.z
      value: 333.76636
      objectReference: {fileID: 0}
    - target: {fileID: 156162505873487013, guid: 7e0723ddd0199ea4dab9b0ca492ef771, type: 3}
      propertyPath: m_LocalRotation.w
      value: 1
      objectReference: {fileID: 0}
    - target: {fileID: 156162505873487013, guid: 7e0723ddd0199ea4dab9b0ca492ef771, type: 3}
      propertyPath: m_LocalRotation.x
      value: 0
      objectReference: {fileID: 0}
    - target: {fileID: 156162505873487013, guid: 7e0723ddd0199ea4dab9b0ca492ef771, type: 3}
      propertyPath: m_LocalRotation.y
      value: 0
      objectReference: {fileID: 0}
    - target: {fileID: 156162505873487013, guid: 7e0723ddd0199ea4dab9b0ca492ef771, type: 3}
      propertyPath: m_LocalRotation.z
      value: 0
      objectReference: {fileID: 0}
    - target: {fileID: 156162505873487013, guid: 7e0723ddd0199ea4dab9b0ca492ef771, type: 3}
      propertyPath: m_LocalEulerAnglesHint.x
      value: 0
      objectReference: {fileID: 0}
    - target: {fileID: 156162505873487013, guid: 7e0723ddd0199ea4dab9b0ca492ef771, type: 3}
      propertyPath: m_LocalEulerAnglesHint.y
      value: 0
      objectReference: {fileID: 0}
    - target: {fileID: 156162505873487013, guid: 7e0723ddd0199ea4dab9b0ca492ef771, type: 3}
      propertyPath: m_LocalEulerAnglesHint.z
      value: 0
      objectReference: {fileID: 0}
    - target: {fileID: 6426078830725994241, guid: 7e0723ddd0199ea4dab9b0ca492ef771, type: 3}
      propertyPath: m_Name
      value: Cube
      objectReference: {fileID: 0}
    m_RemovedComponents: []
  m_SourcePrefab: {fileID: 100100000, guid: 7e0723ddd0199ea4dab9b0ca492ef771, type: 3}
